info face="Cooper24" size=46 bold=0 italic=0 charset="" unicode=0 stretchH=100 smooth=1 aa=1 padding=2,2,2,2 spacing=0,0 outline=0
common lineHeight=53 base=32 scaleW=512 scaleH=512 pages=1 packed=0
page id=0 file="Cooper24.png"
chars count=90
char id=97 x=2 y=2 width=29 height=29 xoffset=-1 yoffset=9 xadvance=26 page=0 chnl=15
char id=98 x=2 y=33 width=33 height=38 xoffset=-2 yoffset=1 xadvance=29 page=0 chnl=15
char id=99 x=33 y=2 width=27 height=29 xoffset=-1 yoffset=9 xadvance=24 page=0 chnl=15
char id=100 x=2 y=73 width=33 height=38 xoffset=-1 yoffset=1 xadvance=30 page=0 chnl=15
char id=101 x=2 y=113 width=27 height=29 xoffset=-1 yoffset=9 xadvance=24 page=0 chnl=15
char id=102 x=2 y=144 width=24 height=38 xoffset=-2 yoffset=1 xadvance=20 page=0 chnl=15
char id=103 x=2 y=184 width=30 height=39 xoffset=-1 yoffset=8 xadvance=27 page=0 chnl=15
char id=104 x=28 y=144 width=34 height=37 xoffset=-2 yoffset=1 xadvance=31 page=0 chnl=15
char id=105 x=37 y=33 width=20 height=37 xoffset=-2 yoffset=1 xadvance=16 page=0 chnl=15
char id=106 x=37 y=72 width=18 height=46 xoffset=-2 yoffset=1 xadvance=17 page=0 chnl=15
char id=107 x=57 y=72 width=38 height=37 xoffset=-2 yoffset=1 xadvance=34 page=0 chnl=15
char id=108 x=59 y=33 width=20 height=37 xoffset=-2 yoffset=1 xadvance=17 page=0 chnl=15
char id=109 x=62 y=2 width=48 height=29 xoffset=-2 yoffset=10 xadvance=44 page=0 chnl=15
char id=110 x=57 y=111 width=34 height=29 xoffset=-2 yoffset=10 xadvance=31 page=0 chnl=15
char id=111 x=81 y=33 width=31 height=29 xoffset=-1 yoffset=9 xadvance=28 page=0 chnl=15
char id=112 x=2 y=225 width=34 height=37 xoffset=-2 yoffset=9 xadvance=31 page=0 chnl=15
char id=113 x=34 y=183 width=33 height=37 xoffset=-1 yoffset=9 xadvance=30 page=0 chnl=15
char id=114 x=112 y=2 width=28 height=29 xoffset=-2 yoffset=10 xadvance=25 page=0 chnl=15
char id=115 x=64 y=142 width=24 height=29 xoffset=-1 yoffset=9 xadvance=22 page=0 chnl=15
char id=116 x=2 y=264 width=26 height=35 xoffset=-2 yoffset=4 xadvance=21 page=0 chnl=15
char id=117 x=2 y=301 width=35 height=29 xoffset=-2 yoffset=10 xadvance=31 page=0 chnl=15
char id=118 x=30 y=264 width=34 height=29 xoffset=-2 yoffset=10 xadvance=29 page=0 chnl=15
char id=119 x=38 y=222 width=50 height=29 xoffset=-2 yoffset=10 xadvance=45 page=0 chnl=15
char id=120 x=69 y=173 width=32 height=29 xoffset=-2 yoffset=10 xadvance=28 page=0 chnl=15
char id=121 x=93 y=111 width=33 height=36 xoffset=-2 yoffset=10 xadvance=28 page=0 chnl=15
char id=122 x=97 y=64 width=27 height=30 xoffset=-2 yoffset=9 xadvance=24 page=0 chnl=15
char id=65 x=126 y=33 width=42 height=38 xoffset=-2 yoffset=0 xadvance=38 page=0 chnl=15
char id=66 x=2 y=332 width=36 height=37 xoffset=-1 yoffset=1 xadvance=33 page=0 chnl=15
char id=67 x=2 y=371 width=36 height=38 xoffset=-1 yoffset=1 xadvance=33 page=0 chnl=15
char id=68 x=2 y=411 width=40 height=38 xoffset=-1 yoffset=1 xadvance=37 page=0 chnl=15
char id=69 x=2 y=451 width=35 height=38 xoffset=-1 yoffset=0 xadvance=32 page=0 chnl=15
char id=70 x=39 y=451 width=34 height=38 xoffset=-1 yoffset=1 xadvance=30 page=0 chnl=15
char id=71 x=40 y=295 width=39 height=38 xoffset=-1 yoffset=1 xadvance=37 page=0 chnl=15
char id=72 x=66 y=253 width=40 height=38 xoffset=-1 yoffset=1 xadvance=37 page=0 chnl=15
char id=73 x=90 y=204 width=22 height=38 xoffset=-1 yoffset=1 xadvance=19 page=0 chnl=15
char id=74 x=103 y=149 width=33 height=38 xoffset=-2 yoffset=1 xadvance=29 page=0 chnl=15
char id=75 x=128 y=73 width=42 height=38 xoffset=-1 yoffset=1 xadvance=38 page=0 chnl=15
char id=76 x=170 y=2 width=33 height=38 xoffset=-1 yoffset=1 xadvance=29 page=0 chnl=15
char id=77 x=40 y=335 width=44 height=38 xoffset=-1 yoffset=1 xadvance=41 page=0 chnl=15
char id=78 x=81 y=293 width=41 height=38 xoffset=-1 yoffset=1 xadvance=38 page=0 chnl=15
char id=79 x=108 y=244 width=38 height=38 xoffset=-1 yoffset=1 xadvance=36 page=0 chnl=15
char id=80 x=114 y=189 width=35 height=38 xoffset=-1 yoffset=1 xadvance=31 page=0 chnl=15
char id=81 x=138 y=113 width=38 height=46 xoffset=-1 yoffset=1 xadvance=36 page=0 chnl=15
char id=82 x=172 y=42 width=39 height=38 xoffset=-1 yoffset=1 xadvance=36 page=0 chnl=15
char id=83 x=205 y=2 width=32 height=38 xoffset=-1 yoffset=1 xadvance=30 page=0 chnl=15
char id=84 x=44 y=375 width=37 height=38 xoffset=-2 yoffset=1 xadvance=32 page=0 chnl=15
char id=85 x=75 y=415 width=41 height=38 xoffset=-1 yoffset=1 xadvance=38 page=0 chnl=15
char id=86 x=83 y=375 width=42 height=38 xoffset=-2 yoffset=1 xadvance=37 page=0 chnl=15
char id=87 x=86 y=333 width=52 height=38 xoffset=-2 yoffset=1 xadvance=48 page=0 chnl=15
char id=88 x=124 y=284 width=41 height=38 xoffset=-2 yoffset=1 xadvance=37 page=0 chnl=15
char id=89 x=148 y=229 width=40 height=38 xoffset=-2 yoffset=1 xadvance=36 page=0 chnl=15
char id=90 x=75 y=455 width=35 height=38 xoffset=-2 yoffset=1 xadvance=32 page=0 chnl=15
char id=33 x=112 y=455 width=15 height=37 xoffset=0 yoffset=2 xadvance=14 page=0 chnl=15
char id=8470 x=81 y=333 width=0 height=0 xoffset=0 yoffset=32 xadvance=0 page=0 chnl=15
char id=59 x=118 y=415 width=15 height=37 xoffset=-1 yoffset=9 xadvance=14 page=0 chnl=15
char id=37 x=127 y=373 width=40 height=38 xoffset=-1 yoffset=1 xadvance=37 page=0 chnl=15
char id=58 x=44 y=415 width=15 height=30 xoffset=0 yoffset=9 xadvance=14 page=0 chnl=15
char id=63 x=140 y=324 width=26 height=38 xoffset=-2 yoffset=1 xadvance=22 page=0 chnl=15
char id=42 x=138 y=161 width=23 height=25 xoffset=2 yoffset=1 xadvance=28 page=0 chnl=15
char id=40 x=167 y=269 width=24 height=46 xoffset=1 yoffset=1 xadvance=23 page=0 chnl=15
char id=41 x=168 y=317 width=24 height=46 xoffset=-2 yoffset=1 xadvance=23 page=0 chnl=15
char id=95 x=97 y=96 width=27 height=12 xoffset=-2 yoffset=35 xadvance=23 page=0 chnl=15
char id=43 x=142 y=2 width=26 height=28 xoffset=1 yoffset=8 xadvance=28 page=0 chnl=15
char id=45 x=2 y=495 width=17 height=15 xoffset=-2 yoffset=16 xadvance=13 page=0 chnl=15
char id=61 x=21 y=491 width=26 height=19 xoffset=1 yoffset=12 xadvance=28 page=0 chnl=15
char id=46 x=49 y=491 width=15 height=17 xoffset=0 yoffset=22 xadvance=14 page=0 chnl=15
char id=44 x=172 y=82 width=15 height=25 xoffset=-1 yoffset=22 xadvance=14 page=0 chnl=15
char id=47 x=129 y=454 width=26 height=46 xoffset=-4 yoffset=1 xadvance=22 page=0 chnl=15
char id=124 x=163 y=161 width=9 height=45 xoffset=7 yoffset=1 xadvance=23 page=0 chnl=15
char id=34 x=151 y=208 width=20 height=19 xoffset=2 yoffset=1 xadvance=23 page=0 chnl=15
char id=39 x=90 y=149 width=11 height=19 xoffset=2 yoffset=1 xadvance=14 page=0 chnl=15
char id=64 x=135 y=413 width=38 height=38 xoffset=-1 yoffset=1 xadvance=36 page=0 chnl=15
char id=35 x=169 y=365 width=28 height=37 xoffset=0 yoffset=1 xadvance=28 page=0 chnl=15
char id=36 x=157 y=453 width=29 height=41 xoffset=0 yoffset=2 xadvance=28 page=0 chnl=15
char id=94 x=175 y=404 width=27 height=20 xoffset=-2 yoffset=1 xadvance=23 page=0 chnl=15
char id=38 x=174 y=161 width=44 height=39 xoffset=-1 yoffset=0 xadvance=40 page=0 chnl=15
char id=123 x=178 y=109 width=24 height=46 xoffset=0 yoffset=1 xadvance=23 page=0 chnl=15
char id=125 x=190 y=202 width=24 height=46 xoffset=-1 yoffset=1 xadvance=23 page=0 chnl=15
char id=91 x=193 y=250 width=20 height=46 xoffset=4 yoffset=1 xadvance=23 page=0 chnl=15
char id=93 x=194 y=298 width=20 height=46 xoffset=-1 yoffset=1 xadvance=23 page=0 chnl=15
char id=48 x=215 y=250 width=30 height=33 xoffset=-1 yoffset=6 xadvance=28 page=0 chnl=15
char id=49 x=216 y=202 width=28 height=33 xoffset=0 yoffset=6 xadvance=28 page=0 chnl=15
char id=50 x=199 y=346 width=31 height=34 xoffset=-2 yoffset=6 xadvance=28 page=0 chnl=15
char id=51 x=216 y=285 width=31 height=37 xoffset=-2 yoffset=6 xadvance=28 page=0 chnl=15
char id=52 x=204 y=82 width=30 height=38 xoffset=-1 yoffset=4 xadvance=28 page=0 chnl=15
char id=53 x=204 y=122 width=29 height=37 xoffset=-1 yoffset=6 xadvance=28 page=0 chnl=15
char id=54 x=213 y=42 width=31 height=36 xoffset=-1 yoffset=3 xadvance=28 page=0 chnl=15
char id=55 x=220 y=161 width=30 height=39 xoffset=-1 yoffset=5 xadvance=28 page=0 chnl=15
char id=56 x=235 y=122 width=31 height=35 xoffset=-2 yoffset=3 xadvance=28 page=0 chnl=15
char id=57 x=239 y=2 width=31 height=38 xoffset=-1 yoffset=6 xadvance=28 page=0 chnl=15
char id=32 x=0 y=0 width=0 height=0 xoffset=-1 yoffset=6 xadvance=13 page=0 chnl=15
